{
    "page": 1,
    "total_results": 19806,
    "total_pages": 991,
    "results": [
        {
            "vote_count": 1391,
            "id": 284053,
            "video": false,
            "vote_average": 7.7,
            "title": "Thor: Ragnarok",
            "popularity": 877.833651,
            "poster_path": "/oSLd5GYGsiGgzDPKTwQh7wamO8t.jpg",
            "original_language": "en",
            "original_title": "Thor: Ragnarok",
            "genre_ids": [
                28,
                12,
                35,
                14,
                878
            ],
            "backdrop_path": "/wBzMnQ01R9w58W6ucltdYfOyP4j.jpg",
            "adult": false,
            "overview": "Thor is imprisoned on the other side of the universe and finds himself in a race against time to get back to Asgard to stop Ragnarok, the destruction of his homeworld and the end of Asgardian civilization, at the hands of an all-powerful new threat, the ruthless Hela.",
            "release_date": "2017-10-25"
        },
        {
            "vote_count": 3633,
            "id": 346364,
            "video": false,
            "vote_average": 7.3,
            "title": "It",
            "popularity": 872.042928,
            "poster_path": "/9E2y5Q7WlCVNEhP5GiVTjhEhx1o.jpg",
            "original_language": "en",
            "original_title": "It",
            "genre_ids": [
                14,
                27,
                53
            ],
            "backdrop_path": "/tcheoA2nPATCm2vvXw2hVQoaEFD.jpg",
            "adult": false,
            "overview": "In a small town in Maine, seven children known as The Losers Club come face to face with life problems, bullies and a monster that takes the shape of a clown called Pennywise.",
            "release_date": "2017-09-05"
        },
        {
            "vote_count": 298,
            "id": 440021,
            "video": false,
            "vote_average": 6.6,
            "title": "Happy Death Day",
            "popularity": 784.245448,
            "poster_path": "/cTaEIUYTt52ooq9quVbAQ7NpGwo.jpg",
            "original_language": "en",
            "original_title": "Happy Death Day",
            "genre_ids": [
                27,
                9648,
                53
            ],
            "backdrop_path": "/eGx5OfOdvM0gkHdmkLe3hcJuEIT.jpg",
            "adult": false,
            "overview": "A college student relives the day of her murder over and over again as she tries to discover her killer's identity.",
            "release_date": "2017-10-12"
        },
        {
            "vote_count": 94,
            "id": 347882,
            "video": false,
            "vote_average": 5.5,
            "title": "Sleight",
            "popularity": 621.004141,
            "poster_path": "/wridRvGxDqGldhzAIh3IcZhHT5F.jpg",
            "original_language": "en",
            "original_title": "Sleight",
            "genre_ids": [
                18,
                53,
                28,
                878
            ],
            "backdrop_path": "/2SEgJ0mHJ7TSdVDbkGU061tR33K.jpg",
            "adult": false,
            "overview": "A young street magician is left to take care of his little sister after his mother's passing and turns to drug dealing in the Los Angeles party scene to keep a roof over their heads. When he gets into trouble with his supplier, his sister is kidnapped and he is forced to rely on both his sleight of hand and brilliant mind to save her.",
            "release_date": "2017-04-28"
        },
        {
            "vote_count": 2264,
            "id": 281338,
            "video": false,
            "vote_average": 6.8,
            "title": "War for the Planet of the Apes",
            "popularity": 515.25554,
            "poster_path": "/3vYhLLxrTtZLysXtIWktmd57Snv.jpg",
            "original_language": "en",
            "original_title": "War for the Planet of the Apes",
            "genre_ids": [
                18,
                878,
                10752
            ],
            "backdrop_path": "/ulMscezy9YX0bhknvJbZoUgQxO5.jpg",
            "adult": false,
            "overview": "Caesar and his apes are forced into a deadly conflict with an army of humans led by a ruthless Colonel. After the apes suffer unimaginable losses, Caesar wrestles with his darker instincts and begins his own mythic quest to avenge his kind. As the journey finally brings them face to face, Caesar and the Colonel are pitted against each other in an epic battle that will determine the fate of both their species and the future of the planet.",
            "release_date": "2017-07-11"
        },
        {
            "vote_count": 4487,
            "id": 315635,
            "video": false,
            "vote_average": 7.3,
            "title": "Spider-Man: Homecoming",
            "popularity": 508.297666,
            "poster_path": "/kY2c7wKgOfQjvbqe7yVzLTYkxJO.jpg",
            "original_language": "en",
            "original_title": "Spider-Man: Homecoming",
            "genre_ids": [
                28,
                12,
                35,
                878
            ],
            "backdrop_path": "/vc8bCGjdVp0UbMNLzHnHSLRbBWQ.jpg",
            "adult": false,
            "overview": "Following the events of Captain America: Civil War, Peter Parker, with the help of his mentor Tony Stark, tries to balance his life as an ordinary high school student in Queens, New York City, with fighting crime as his superhero alter ego Spider-Man as a new threat, the Vulture, emerges.",
            "release_date": "2017-07-05"
        },
        {
            "vote_count": 4951,
            "id": 211672,
            "video": false,
            "vote_average": 6.4,
            "title": "Minions",
            "popularity": 495.028616,
            "poster_path": "/q0R4crx2SehcEEQEkYObktdeFy.jpg",
            "original_language": "en",
            "original_title": "Minions",
            "genre_ids": [
                10751,
                16,
                12,
                35
            ],
            "backdrop_path": "/uX7LXnsC7bZJZjn048UCOwkPXWJ.jpg",
            "adult": false,
            "overview": "Minions Stuart, Kevin and Bob are recruited by Scarlet Overkill, a super-villain who, alongside her inventor husband Herb, hatches a plot to take over the world.",
            "release_date": "2015-06-17"
        },
        {
            "vote_count": 1636,
            "id": 335984,
            "video": false,
            "vote_average": 7.4,
            "title": "Blade Runner 2049",
            "popularity": 447.087404,
            "poster_path": "/aMpyrCizvSdc0UIMblJ1srVgAEF.jpg",
            "original_language": "en",
            "original_title": "Blade Runner 2049",
            "genre_ids": [
                28,
                9648,
                878,
                53
            ],
            "backdrop_path": "/mVr0UiqyltcfqxbAUcLl9zWL8ah.jpg",
            "adult": false,
            "overview": "Thirty years after the events of the first film, a new blade runner, LAPD Officer K, unearths a long-buried secret that has the potential to plunge what's left of society into chaos. K's discovery leads him on a quest to find Rick Deckard, a former LAPD blade runner who has been missing for 30 years.",
            "release_date": "2017-10-04"
        },
        {
            "vote_count": 206,
            "id": 298250,
            "video": false,
            "vote_average": 6,
            "title": "Jigsaw",
            "popularity": 400.299466,
            "poster_path": "/zUbUtxiTdEgWnkXY945gtYYqBZ1.jpg",
            "original_language": "en",
            "original_title": "Jigsaw",
            "genre_ids": [
                27,
                53
            ],
            "backdrop_path": "/ytKpFaLMpFWnuSXStz1GHrtTt6R.jpg",
            "adult": false,
            "overview": "Dead bodies begin to turn up all over the city, each meeting their demise in a variety of grisly ways. All investigations begin to point the finger at deceased killer John Kramer.",
            "release_date": "2017-10-20"
        },
        {
            "vote_count": 237,
            "id": 274855,
            "video": false,
            "vote_average": 5.8,
            "title": "Geostorm",
            "popularity": 375.422552,
            "poster_path": "/nrsx0jEaBgXq4PWo7SooSnYJTv.jpg",
            "original_language": "en",
            "original_title": "Geostorm",
            "genre_ids": [
                28,
                878,
                53
            ],
            "backdrop_path": "/lhTtnsPmEYUJB7nOaTKJzYoxJ7X.jpg",
            "adult": false,
            "overview": "Gerard Butler playing a stubborn but charming satellite designer who, when the world’s climate-controlling satellites malfunction, has to work together with his estranged brother to save the world from a man-made storm of epic proportions. A trip into space follows, while on Earth a plot to assassinate the president begins to unfold.",
            "release_date": "2017-10-13"
        },
        {
            "vote_count": 5871,
            "id": 321612,
            "video": false,
            "vote_average": 6.8,
            "title": "Beauty and the Beast",
            "popularity": 328.484446,
            "poster_path": "/tWqifoYuwLETmmasnGHO7xBjEtt.jpg",
            "original_language": "en",
            "original_title": "Beauty and the Beast",
            "genre_ids": [
                10751,
                14,
                10749
            ],
            "backdrop_path": "/6aUWe0GSl69wMTSWWexsorMIvwU.jpg",
            "adult": false,
            "overview": "A live-action adaptation of Disney's version of the classic 'Beauty and the Beast' tale of a cursed prince and a beautiful young woman who helps him break the spell.",
            "release_date": "2017-03-16"
        },
        {
            "vote_count": 5688,
            "id": 297762,
            "video": false,
            "vote_average": 7.2,
            "title": "Wonder Woman",
            "popularity": 327.797706,
            "poster_path": "/imekS7f1OuHyUP2LAiTEM0zBzUz.jpg",
            "original_language": "en",
            "original_title": "Wonder Woman",
            "genre_ids": [
                28,
                12,
                14
            ],
            "backdrop_path": "/6iUNJZymJBMXXriQyFZfLAKnjO6.jpg",
            "adult": false,
            "overview": "An Amazon princess comes to the world of Man to become the greatest of the female superheroes.",
            "release_date": "2017-05-30"
        },
        {
            "vote_count": 164,
            "id": 372343,
            "video": false,
            "vote_average": 5,
            "title": "The Snowman",
            "popularity": 317.470804,
            "poster_path": "/bQHgpTVsAWjNQWS0frsl7DlzLX1.jpg",
            "original_language": "en",
            "original_title": "The Snowman",
            "genre_ids": [
                80,
                18,
                27,
                9648,
                53
            ],
            "backdrop_path": "/tAg6KUBANIVbYUpTHy5oKibhhw3.jpg",
            "adult": false,
            "overview": "Detective Harry Hole investigates the disappearance of a woman whose pink scarf is found wrapped around an ominous looking snowman.",
            "release_date": "2017-10-12"
        },
        {
            "vote_count": 111,
            "id": 390062,
            "video": false,
            "vote_average": 5.3,
            "title": "Jungle",
            "popularity": 303.705178,
            "poster_path": "/tDgxknTVwrScxpCYyGUjXSn5NRk.jpg",
            "original_language": "en",
            "original_title": "Jungle",
            "genre_ids": [
                12,
                18,
                53
            ],
            "backdrop_path": "/go1a6YwrVTMrNNIfaRpBRp5pIzV.jpg",
            "adult": false,
            "overview": "A mysterious guide escorts an enthusiastic adventurer and his friend into the Amazon jungle, but their journey turns into a terrifying ordeal as the darkest elements of human nature and the deadliest threats of the wild force them to fight for survival.",
            "release_date": "2017-10-20"
        },
        {
            "vote_count": 1033,
            "id": 341013,
            "video": false,
            "vote_average": 6.2,
            "title": "Atomic Blonde",
            "popularity": 294.132074,
            "poster_path": "/kV9R5h0Yct1kR8Hf8sJ1nX0Vz4x.jpg",
            "original_language": "en",
            "original_title": "Atomic Blonde",
            "genre_ids": [
                53,
                9648,
                28
            ],
            "backdrop_path": "/lj3wkYkJGkfmDfXkKrVarSJpFD4.jpg",
            "adult": false,
            "overview": "An undercover MI6 agent is sent to Berlin during the Cold War to investigate the murder of a fellow agent and recover a missing list of double agents.",
            "release_date": "2017-07-26"
        },
        {
            "vote_count": 6494,
            "id": 177572,
            "video": false,
            "vote_average": 7.8,
            "title": "Big Hero 6",
            "popularity": 286.272447,
            "poster_path": "/9gLu47Zw5ertuFTZaxXOvNfy78T.jpg",
            "original_language": "en",
            "original_title": "Big Hero 6",
            "genre_ids": [
                12,
                10751,
                16,
                28,
                35
            ],
            "backdrop_path": "/2BXd0t9JdVqCp9sKf6kzMkr7QjB.jpg",
            "adult": false,
            "overview": "The special bond that develops between plus-sized inflatable robot Baymax, and prodigy Hiro Hamada, who team up with a group of friends to form a band of high-tech heroes.",
            "release_date": "2014-10-24"
        },
        {
            "vote_count": 5670,
            "id": 245891,
            "video": false,
            "vote_average": 7,
            "title": "John Wick",
            "popularity": 252.068419,
            "poster_path": "/5vHssUeVe25bMrof1HyaPyWgaP.jpg",
            "original_language": "en",
            "original_title": "John Wick",
            "genre_ids": [
                28,
                53
            ],
            "backdrop_path": "/umC04Cozevu8nn3JTDJ1pc7PVTn.jpg",
            "adult": false,
            "overview": "Ex-hitman John Wick comes out of retirement to track down the gangsters that took everything from him.",
            "release_date": "2014-10-22"
        },
        {
            "vote_count": 6013,
            "id": 131631,
            "video": false,
            "vote_average": 6.6,
            "title": "The Hunger Games: Mockingjay - Part 1",
            "popularity": 209.806359,
            "poster_path": "/gj282Pniaa78ZJfbaixyLXnXEDI.jpg",
            "original_language": "en",
            "original_title": "The Hunger Games: Mockingjay - Part 1",
            "genre_ids": [
                878,
                12,
                53
            ],
            "backdrop_path": "/4PwyB0ErucIANzW24Kori71J6gU.jpg",
            "adult": false,
            "overview": "Katniss Everdeen reluctantly becomes the symbol of a mass rebellion against the autocratic Capitol.",
            "release_date": "2014-11-18"
        },
        {
            "vote_count": 6318,
            "id": 210577,
            "video": false,
            "vote_average": 7.9,
            "title": "Gone Girl",
            "popularity": 208.931889,
            "poster_path": "/gdiLTof3rbPDAmPaCf4g6op46bj.jpg",
            "original_language": "en",
            "original_title": "Gone Girl",
            "genre_ids": [
                9648,
                53,
                18
            ],
            "backdrop_path": "/bt6DhdALyhf90gReozoQ0y3R3vZ.jpg",
            "adult": false,
            "overview": "With his wife's disappearance having become the focus of an intense media circus, a man sees the spotlight turned on him when it's suspected that he may not be innocent.",
            "release_date": "2014-10-01"
        },
        {
            "vote_count": 85,
            "id": 459202,
            "video": false,
            "vote_average": 5.4,
            "title": "Boo 2! A Madea Halloween",
            "popularity": 183.802616,
            "poster_path": "/5nvP4etJ8ecQv8qZM08dK4BAzdK.jpg",
            "original_language": "en",
            "original_title": "Boo 2! A Madea Halloween",
            "genre_ids": [
                27,
                35
            ],
            "backdrop_path": "/78kN1a1AHxAPEh7hQhNjDQhLZ9W.jpg",
            "adult": false,
            "overview": "Madea and the gang encounter monsters, goblins and boogeymen at a haunted campground.",
            "release_date": "2017-10-20"
        },
        {
            "vote_count": 6070,
            "id": 131631,
            "video": false,
            "vote_average": 6.6,
            "title": "The Hunger Games: Mockingjay - Part 1",
            "popularity": 159.489233,
            "poster_path": "/gj282Pniaa78ZJfbaixyLXnXEDI.jpg",
            "original_language": "en",
            "original_title": "The Hunger Games: Mockingjay - Part 1",
            "genre_ids": [
                878,
                12,
                53
            ],
            "backdrop_path": "/4PwyB0ErucIANzW24Kori71J6gU.jpg",
            "adult": false,
            "overview": "Katniss Everdeen reluctantly becomes the symbol of a mass rebellion against the autocratic Capitol.",
            "release_date": "2014-11-18"
        }
    ]
}